{
  "id": "1861974",
  "name": "Recutement图标库",
  "font_family": "iconfont",
  "css_prefix_text": "",
  "description": "",
  "glyphs": [
    {
      "icon_id": "15757811",
      "name": "video_selected",
      "font_class": "icon_function_video_selected_24",
      "unicode": "e649",
      "unicode_decimal": 58953
    },
    {
      "icon_id": "15757795",
      "name": "video_default",
      "font_class": "icon_function_video_default_24",
      "unicode": "e648",
      "unicode_decimal": 58952
    },
    {
      "icon_id": "15757767",
      "name": "share",
      "font_class": "icon_function_share_20",
      "unicode": "e645",
      "unicode_decimal": 58949
    },
    {
      "icon_id": "15757765",
      "name": "reschedule",
      "font_class": "icon_function_reschedule_20",
      "unicode": "e644",
      "unicode_decimal": 58948
    },
    {
      "icon_id": "15757744",
      "name": "mute_selected",
      "font_class": "icon_function_mute_selected_24",
      "unicode": "e643",
      "unicode_decimal": 58947
    },
    {
      "icon_id": "15757730",
      "name": "mute_default",
      "font_class": "icon_function_mute_default_24",
      "unicode": "e642",
      "unicode_decimal": 58946
    },
    {
      "icon_id": "15757719",
      "name": "leave_default",
      "font_class": "icon_function_leave_default_24",
      "unicode": "e640",
      "unicode_decimal": 58944
    },
    {
      "icon_id": "15757710",
      "name": "expansion",
      "font_class": "icon_function_expansion_white_16",
      "unicode": "e63f",
      "unicode_decimal": 58943
    },
    {
      "icon_id": "15757698",
      "name": "device_default",
      "font_class": "icon_function_device_default_24",
      "unicode": "e63e",
      "unicode_decimal": 58942
    },
    {
      "icon_id": "15757682",
      "name": "date",
      "font_class": "date",
      "unicode": "e63d",
      "unicode_decimal": 58941
    },
    {
      "icon_id": "15757476",
      "name": "attendee_default",
      "font_class": "icon_function_attendee_default_24",
      "unicode": "e63b",
      "unicode_decimal": 58939
    },
    {
      "icon_id": "15757379",
      "name": "attend",
      "font_class": "icon_function_attend_20",
      "unicode": "e63a",
      "unicode_decimal": 58938
    },
    {
      "icon_id": "15757370",
      "name": "popup_arrow",
      "font_class": "popup_arrow",
      "unicode": "e639",
      "unicode_decimal": 58937
    },
    {
      "icon_id": "15757360",
      "name": "more_white",
      "font_class": "more_white",
      "unicode": "e638",
      "unicode_decimal": 58936
    },
    {
      "icon_id": "15757292",
      "name": "time",
      "font_class": "time",
      "unicode": "e635",
      "unicode_decimal": 58933
    },
    {
      "icon_id": "15486645",
      "name": "icon_right_blue",
      "font_class": "icon_right_blue",
      "unicode": "e61f",
      "unicode_decimal": 58911
    },
    {
      "icon_id": "15486643",
      "name": "icon_language",
      "font_class": "icon_language",
      "unicode": "e61e",
      "unicode_decimal": 58910
    },
    {
      "icon_id": "15486620",
      "name": "icon_fun_video",
      "font_class": "icon_fuc_video",
      "unicode": "e61d",
      "unicode_decimal": 58909
    },
    {
      "icon_id": "15486617",
      "name": "icon_fuc_whatsapp",
      "font_class": "icon_fuc_whatsapp",
      "unicode": "e61c",
      "unicode_decimal": 58908
    },
    {
      "icon_id": "15486614",
      "name": "icon_fuc_wechat",
      "font_class": "icon_fuc_wechat",
      "unicode": "e61b",
      "unicode_decimal": 58907
    },
    {
      "icon_id": "15486549",
      "name": "icon_fuc_phone",
      "font_class": "icon_fuc_phone",
      "unicode": "e618",
      "unicode_decimal": 58904
    },
    {
      "icon_id": "15486538",
      "name": "icon_fuc_mail",
      "font_class": "icon_fuc_mail",
      "unicode": "e617",
      "unicode_decimal": 58903
    },
    {
      "icon_id": "15486497",
      "name": "icon_girl",
      "font_class": "icon_girl",
      "unicode": "e615",
      "unicode_decimal": 58901
    },
    {
      "icon_id": "15486493",
      "name": "icon_boy",
      "font_class": "icon_boy",
      "unicode": "e614",
      "unicode_decimal": 58900
    },
    {
      "icon_id": "15486445",
      "name": "icon_arrow_grey",
      "font_class": "icon_arrow_grey",
      "unicode": "e613",
      "unicode_decimal": 58899
    },
    {
      "icon_id": "15141432",
      "name": "label_selected",
      "font_class": "label_selected",
      "unicode": "e611",
      "unicode_decimal": 58897
    },
    {
      "icon_id": "15141259",
      "name": "text_delete@1x",
      "font_class": "text_delete",
      "unicode": "e60f",
      "unicode_decimal": 58895
    },
    {
      "icon_id": "15141220",
      "name": "radio_selected@1x",
      "font_class": "radio_selected",
      "unicode": "e60e",
      "unicode_decimal": 58894
    },
    {
      "icon_id": "15141218",
      "name": "radio_default@1x",
      "font_class": "radio",
      "unicode": "e60d",
      "unicode_decimal": 58893
    },
    {
      "icon_id": "15141210",
      "name": "more@1x",
      "font_class": "more",
      "unicode": "e60c",
      "unicode_decimal": 58892
    },
    {
      "icon_id": "15141206",
      "name": "icon_search@1x",
      "font_class": "search",
      "unicode": "e60b",
      "unicode_decimal": 58891
    },
    {
      "icon_id": "15141187",
      "name": "icon_delete@1x",
      "font_class": "delete",
      "unicode": "e60a",
      "unicode_decimal": 58890
    },
    {
      "icon_id": "15141116",
      "name": "icon_close@1x",
      "font_class": "close",
      "unicode": "e607",
      "unicode_decimal": 58887
    },
    {
      "icon_id": "15141110",
      "name": "icon_arrow_down@1x",
      "font_class": "arrow_down",
      "unicode": "e606",
      "unicode_decimal": 58886
    },
    {
      "icon_id": "15141037",
      "name": "back_arrow@1x",
      "font_class": "back_arrow",
      "unicode": "e605",
      "unicode_decimal": 58885
    },
    {
      "icon_id": "15104773",
      "name": "icon_add@1x",
      "font_class": "add",
      "unicode": "e604",
      "unicode_decimal": 58884
    },
    {
      "icon_id": "15103778",
      "name": "icon_fliter@1x",
      "font_class": "filter",
      "unicode": "e603",
      "unicode_decimal": 58883
    }
  ]
}
